ase 1990 1997 1998 1999 2000 2001 2002 2003 2004 2005 2006 2007 2008 2009 2010 2011 2012 2013 2014 2015 2016 2017 2018
chi 1952
ec 1962 1993
emsoft 1993 2017
eurocrypt 1981 1983 1986
fse 1993 1994 1995 1996 1997 1998 1999 2000 2001 2002 2003 2004 2005 2006 2007 2008 2009 2010 2011 2012 2013 2014 2015 2016 2017 2018
hpdc 1965 1979 1981 1982 1983 1984 1985
iccad 1986
icfp 1993 2017 2018
icse 1975
ismb 2009 2010 2011 2012 2013 2014 2015 2018
issta 1978 1982 1986 1988 1989 1991
mobicom 1993
mobisys 1971 1993
oopsla 2017 2018
pervasive 1993 2018
pldi 1979 1982 1984 1986
popl 2018
recomb 1956 1993
rtas 1956 1993
rtss 1983 1984 2018
sc 2018
sensys 1993
ubicomp 1993 2001 2002 2003 2004 2005 2006 2007 2008 2009 2010 2011 2012 2013 2014 2015 2016 2017 2018
wine 1993 2018icassp 1977 1985 1986 1987 1988 1989 1990 1991 1992 1993
